<?xml version="1.0" encoding="UTF-8" standalone="no"?>
<svg
   xmlns:dc="http://purl.org/dc/elements/1.1/"
   xmlns:cc="http://creativecommons.org/ns#"
   xmlns:rdf="http://www.w3.org/1999/02/22-rdf-syntax-ns#"
   xmlns:svg="http://www.w3.org/2000/svg"
   xmlns="http://www.w3.org/2000/svg"
   xmlns:sodipodi="http://sodipodi.sourceforge.net/DTD/sodipodi-0.dtd"
   xmlns:inkscape="http://www.inkscape.org/namespaces/inkscape"
   id="SVGRoot"
   version="1.1"
   viewBox="0 0 200.0 200.0"
   height="200.0px"
   width="200.0px"
   inkscape:version="1.0 (4035a4fb49, 2020-05-01)"
   sodipodi:docname="Clock.svg"
   inkscape:export-filename="C:\Users\Максим\YandexDisk\UnityProjects\Clock Demo\Assets\Images\Clock.png"
   inkscape:export-xdpi="1966.08"
   inkscape:export-ydpi="1966.08">
  <defs
     id="defs833" />
  <sodipodi:namedview
     id="base"
     pagecolor="#ffffff"
     bordercolor="#666666"
     borderopacity="1.0"
     inkscape:pageopacity="0.0"
     inkscape:pageshadow="2"
     inkscape:zoom="4"
     inkscape:cx="107.88877"
     inkscape:cy="57.358922"
     inkscape:document-units="px"
     inkscape:current-layer="layer1"
     inkscape:document-rotation="0"
     showgrid="true"
     inkscape:window-width="1920"
     inkscape:window-height="1001"
     inkscape:window-x="-9"
     inkscape:window-y="-9"
     inkscape:window-maximized="1"
     showguides="true"
     inkscape:guide-bbox="true"
     inkscape:pagecheckerboard="true">
    <inkscape:grid
       id="grid1403"
       type="xygrid" />
    <sodipodi:guide
       position="100,205"
       orientation="1,0"
       id="guide1410" />
    <sodipodi:guide
       position="0,100"
       orientation="0,-1"
       id="guide1412" />
    <sodipodi:guide
       position="95,195"
       orientation="0,-1"
       id="guide1414" />
    <sodipodi:guide
       position="5,195"
       orientation="1,0"
       id="guide1416" />
    <sodipodi:guide
       position="95,195"
       orientation="1,0"
       id="guide1418" />
    <sodipodi:guide
       position="105,195"
       orientation="1,0"
       id="guide1420" />
    <sodipodi:guide
       position="195,195"
       orientation="1,0"
       id="guide1422" />
    <sodipodi:guide
       position="105,105"
       orientation="0,-1"
       id="guide1424" />
    <sodipodi:guide
       position="105,95"
       orientation="0,-1"
       id="guide1426" />
    <sodipodi:guide
       position="105,5"
       orientation="0,-1"
       id="guide1428" />
    <sodipodi:guide
       position="50,150"
       orientation="1,0"
       id="guide1430" />
    <sodipodi:guide
       position="50,150"
       orientation="0,-1"
       id="guide1432" />
    <sodipodi:guide
       position="50,150"
       orientation="0.5,0.8660254"
       id="guide1434"
       inkscape:label=""
       inkscape:locked="false"
       inkscape:color="rgb(0,0,255)" />
    <sodipodi:guide
       position="50,150"
       orientation="-0.5,0.8660254"
       id="guide1436"
       inkscape:label=""
       inkscape:locked="false"
       inkscape:color="rgb(0,0,255)" />
    <sodipodi:guide
       position="50,150"
       orientation="0.8660254,0.5"
       id="guide1438"
       inkscape:label=""
       inkscape:locked="false"
       inkscape:color="rgb(0,0,255)" />
    <sodipodi:guide
       position="50,150"
       orientation="-0.8660254,0.5"
       id="guide1440"
       inkscape:label=""
       inkscape:locked="false"
       inkscape:color="rgb(0,0,255)" />
    <sodipodi:guide
       position="150,150"
       orientation="1,0"
       id="guide1610" />
    <sodipodi:guide
       position="150,190"
       orientation="0,-1"
       id="guide1612" />
    <sodipodi:guide
       position="150,185"
       orientation="0,-1"
       id="guide1616" />
    <sodipodi:guide
       position="150,175"
       orientation="0,-1"
       id="guide1618" />
    <sodipodi:guide
       position="50,50"
       orientation="0,-1"
       id="guide1642" />
  </sodipodi:namedview>
  <metadata
     id="metadata836">
    <rdf:RDF>
      <cc:Work
         rdf:about="">
        <dc:format>image/svg+xml</dc:format>
        <dc:type
           rdf:resource="http://purl.org/dc/dcmitype/StillImage" />
        <dc:title />
      </cc:Work>
    </rdf:RDF>
  </metadata>
  <g
     inkscape:label="Слой 1"
     inkscape:groupmode="layer"
     id="layer1">
    <circle
       style="fill:#ffffff;stroke:#e6e6e6;stroke-linecap:round;stroke-linejoin:round;stroke-opacity:1;stroke-width:1;stroke-miterlimit:4;stroke-dasharray:none"
       id="path1442"
       cx="50"
       cy="50"
       r="45" />
    <path
       id="path1508-7"
       d="m 71.5,12.760908 -43,74.478184 z"
       style="fill:none;stroke:#000000;stroke-width:1px;stroke-linecap:butt;stroke-linejoin:miter;stroke-opacity:1" />
    <path
       id="path1508-6"
       d="m 87.239092,28.5 -74.478184,43 z"
       style="fill:none;stroke:#000000;stroke-width:1px;stroke-linecap:butt;stroke-linejoin:miter;stroke-opacity:1" />
    <path
       style="fill:none;stroke:#000000;stroke-width:1px;stroke-linecap:butt;stroke-linejoin:miter;stroke-opacity:1"
       d="m 28.5,12.760908 43,74.478184 z"
       id="path1508-7-9" />
    <path
       style="fill:none;stroke:#000000;stroke-width:1px;stroke-linecap:butt;stroke-linejoin:miter;stroke-opacity:1"
       d="m 12.760908,28.5 74.478184,43 z"
       id="path1508-6-8" />
    <circle
       style="fill:#ffffff;stroke:none;stroke-width:1;stroke-linecap:round;stroke-linejoin:round;stroke-miterlimit:4;stroke-dasharray:none;stroke-opacity:1"
       id="path1606"
       cx="50"
       cy="50"
       r="40" />
    <path
       id="path1508-5"
       style="fill:none;stroke:#000000;stroke-width:1px;stroke-linecap:butt;stroke-linejoin:miter;stroke-opacity:1"
       d="M 15,50 H 7 m 86,0 v 0 h -8"
       sodipodi:nodetypes="ccccc" />
    <path
       sodipodi:nodetypes="ccccc"
       d="M 50,15 V 7 m 0,86 v 0 -8"
       style="fill:none;stroke:#000000;stroke-width:1px;stroke-linecap:butt;stroke-linejoin:miter;stroke-opacity:1"
       id="path1508-5-4" />
    <circle
       style="fill:#ececec;stroke:none;stroke-width:1;stroke-linecap:round;stroke-linejoin:round;stroke-miterlimit:4;stroke-dasharray:none;stroke-opacity:1"
       id="path1608"
       cx="50"
       cy="50"
       r="3" />
    <g
       style="fill:#ffffff;fill-opacity:1;stroke-width:1;stroke-miterlimit:4;stroke-dasharray:none;stroke:none"
       id="g877">
      <circle
         r="3"
         cy="50"
         cx="150"
         id="path1620"
         style="fill:#ffffff;stroke:none;stroke-width:1;stroke-linecap:round;stroke-linejoin:round;stroke-miterlimit:4;stroke-dasharray:none;stroke-opacity:1;fill-opacity:1" />
      <path
         sodipodi:nodetypes="ccccccccc"
         id="path1622"
         d="m 148,50 1,-24 1,-1 1,1 1,24 v 5 l -2,1 -2,-1 z"
         style="fill:#ffffff;stroke:none;stroke-width:1;stroke-linecap:butt;stroke-linejoin:miter;stroke-opacity:1;fill-opacity:1;stroke-miterlimit:4;stroke-dasharray:none" />
    </g>
    <g
       style="fill:#ffffff;fill-opacity:1;stroke-width:1;stroke-miterlimit:4;stroke-dasharray:none;stroke:none"
       id="g881">
      <circle
         style="fill:#ffffff;stroke:none;stroke-width:1;stroke-linecap:round;stroke-linejoin:round;stroke-miterlimit:4;stroke-dasharray:none;stroke-opacity:1;fill-opacity:1"
         id="path1620-0"
         cx="50"
         cy="150"
         r="3" />
      <path
         sodipodi:nodetypes="ccccccccc"
         style="fill:#ffffff;stroke:none;stroke-width:1;stroke-linecap:butt;stroke-linejoin:miter;stroke-opacity:1;fill-opacity:1;stroke-miterlimit:4;stroke-dasharray:none"
         d="m 49,150 v -29 l 1,-1 1,1 v 29 7 l -1,1 -1,-1 z"
         id="path1622-0" />
    </g>
    <g
       style="fill:#ffffff;fill-opacity:1;stroke-width:1;stroke-miterlimit:4;stroke-dasharray:none;stroke:none"
       id="g885">
      <circle
         r="3"
         cy="150"
         cx="150"
         id="path1620-0-7"
         style="fill:#ffffff;stroke:none;stroke-width:1;stroke-linecap:round;stroke-linejoin:round;stroke-miterlimit:4;stroke-dasharray:none;stroke-opacity:1;fill-opacity:1" />
      <path
         sodipodi:nodetypes="cccccccccccccccc"
         d="m 150,110 -1,7 v 2 l 1,-1 1,1 v -2 z m -1,40 v 5 l 1,-1 1,1 v -5 -24 l -1,1 -1,-1 z"
         style="fill:#ffffff;stroke:none;stroke-width:1;stroke-linecap:butt;stroke-linejoin:miter;stroke-miterlimit:4;stroke-dasharray:none;stroke-opacity:1;fill-opacity:1"
         id="path1622-0-5" />
    </g>
  </g>
</svg>
