{
    "name": "MainAssembly",
    "rootNamespace": "",
    "references": [
        "GUID:6055be8ebefd69e48b49212b09b47b2f",
        "GUID:79e4d9dbd3411a14699996c7fa0b2eb7",
        "GUID:32db4d922ed2b8f4fa021db3277dad04",
        "GUID:a293fedaf8af20a47afa77d133f02d13",
        "GUID:75469ad4d38634e559750d17036d5f7c"
    ],
    "includePlatforms": [],
    "excludePlatforms": [],
    "allowUnsafeCode": false,
    "overrideReferences": false,
    "precompiledReferences": [],
    "autoReferenced": true,
    "defineConstraints": [],
    "versionDefines": [],
    "noEngineReferences": false
}